%YAML 1.1
%TAG !u! tag:unity3d.com,2011:
--- !u!114 &11400000
MonoBehaviour:
  m_ObjectHideFlags: 0
  m_CorrespondingSourceObject: {fileID: 0}
  m_PrefabInstance: {fileID: 0}
  m_PrefabAsset: {fileID: 0}
  m_GameObject: {fileID: 0}
  m_Enabled: 1
  m_EditorHideFlags: 0
  m_Script: {fileID: 11500000, guid: d8572780486be72499ac9d1126ceed89, type: 3}
  m_Name: Desert Dark
  m_EditorClassIdentifier: 
  material: {fileID: 2100000, guid: 638c36a08642b3b4ea14d82e37421009, type: 2}
  weight: 1
  rules:
  - firstColorProperty: 0
    matchOperator: 0
    secondColorProperty: 1
    value: 0
  - firstColorProperty: 0
    matchOperator: 0
    secondColorProperty: 2
    value: 0
  - firstColorProperty: 4
    matchOperator: 0
    secondColorProperty: 5
    value: 50
